{
    "key": "5856941384573",
    "name": "comments",
    "label": "Comments",
    "display": "block",
    "sub_fields": [
        {
            "default_value": "",
            "maxlength": "",
            "placeholder": "",
            "prepend": "",
            "append": "",
            "key": "field_5856941384576",
            "label": "Module ID",
            "name": "module_id",
            "type": "text",
            "instructions": "",
            "required": 0,
            "conditional_logic": 0,
            "wrapper": {
                "width": "",
                "class": "",
                "id": ""
            }
        }
    ],
    "min": "",
    "max": ""
}