{
    "key": "5895c71f84460",
    "name": "post_index",
    "label": "Post Index",
    "display": "block",
    "sub_fields": [
        {
            "default_value": "",
            "maxlength": "",
            "placeholder": "",
            "prepend": "",
            "append": "",
            "key": "field_5895c71f84461",
            "label": "Post Index Heading",
            "name": "post_index_heading",
            "type": "text",
            "instructions": "",
            "required": 0,
            "conditional_logic": 0,
            "wrapper": {
                "width": "",
                "class": "",
                "id": ""
            }
        },
        {
            "default_value": "",
            "maxlength": "",
            "placeholder": "",
            "prepend": "",
            "append": "",
            "key": "field_5895c71f84462",
            "label": "Module ID",
            "name": "module_id",
            "type": "text",
            "instructions": "",
            "required": 0,
            "conditional_logic": 0,
            "wrapper": {
                "width": "",
                "class": "",
                "id": ""
            }
        }
    ],
    "min": "",
    "max": ""
}