  {
      "key": "58566d92c8c65",
      "name": "page_post_content",
      "label": "Page Post Content",
      "display": "block",
      "sub_fields": [
          {
              "default_value": "",
              "maxlength": "",
              "placeholder": "",
              "prepend": "",
              "append": "",
              "key": "field_58566f1bb2f59",
              "label": "Module ID",
              "name": "module_id",
              "type": "text",
              "instructions": "",
              "required": 0,
              "conditional_logic": 0,
              "wrapper": {
                  "width": "",
                  "class": "",
                  "id": ""
              }
          }
      ],
      "min": "",
      "max": ""
  }